…
## Activity #4 - In Window functions, we formed a tibble with 24 rows: 2 per year, giving the country with both the lowest and highest life expectancy (in Asia). Take that table and reshape it so you have one row per year or per year * continent combination.

First, I copied the table.

```r
dat4 <- gapminder %>%
  select(year, continent, country, lifeExp) %>%
  group_by(continent, year) %>%
  filter(min_rank(desc(lifeExp)) < 2 | min_rank(lifeExp) < 2) %>% 
  arrange(year) 
dat4
```

```
## # A tibble: 120 x 4
## # Groups:   continent, year [60]
##     year continent     country lifeExp
##    <int>    <fctr>      <fctr>   <dbl>
##  1  1952      Asia Afghanistan  28.801
##  2  1952   Oceania   Australia  69.120
##  3  1952  Americas      Canada  68.750
##  4  1952    Africa      Gambia  30.000
##  5  1952  Americas       Haiti  37.579
##  6  1952      Asia      Israel  65.390
##  7  1952   Oceania New Zealand  69.390
##  8  1952    Europe      Norway  72.670
##  9  1952    Africa     Reunion  52.724
## 10  1952    Europe      Turkey  43.585
## # ... with 110 more rows
```
…
