…
# But I want to do more!
This code filters the data of Afghanistan and Rwanda as a set/vector according to the order of year. For example, Rwanda 1952 and Afghanistan 1957 are included but Afghanistan 1952 and Rwanda 1957 are not included. Since Rwanda is the first term in the vector, therefore, the filtered data starts with Rwanda 1952. 
It is not the correct way to select data for Rwanda and Afghanistan since half of the data from Rwanda and Afghanistan is not included in this filtered list.
The correct way should be the following.

```r
filter(gapminder, country == "Rwanda" | country == "Afghanistan")
```

```
## # A tibble: 24 x 6
##        country continent  year lifeExp      pop gdpPercap
##         <fctr>    <fctr> <int>   <dbl>    <int>     <dbl>
##  1 Afghanistan      Asia  1952  28.801  8425333  779.4453
##  2 Afghanistan      Asia  1957  30.332  9240934  820.8530
##  3 Afghanistan      Asia  1962  31.997 10267083  853.1007
##  4 Afghanistan      Asia  1967  34.020 11537966  836.1971
##  5 Afghanistan      Asia  1972  36.088 13079460  739.9811
##  6 Afghanistan      Asia  1977  38.438 14880372  786.1134
##  7 Afghanistan      Asia  1982  39.854 12881816  978.0114
##  8 Afghanistan      Asia  1987  40.822 13867957  852.3959
##  9 Afghanistan      Asia  1992  41.674 16317921  649.3414
## 10 Afghanistan      Asia  1997  41.763 22227415  635.3414
## # ... with 14 more rows
```
…
