…
```
## Parsed with column specification:
## cols(
##   country = col_character(),
##   continent = col_character(),
##   year = col_integer(),
##   lifeExp = col_double(),
##   pop = col_integer(),
##   gdpPercap = col_double()
## )
```

```
## # A tibble: 66 x 6
##        country continent  year lifeExp        pop  gdpPercap
##          <chr>     <chr> <int>   <dbl>      <int>      <dbl>
##  1 Afghanistan      Asia  2002  42.129   25268405   726.7341
##  2 Afghanistan      Asia  2007  43.828   31889923   974.5803
##  3     Bahrain      Asia  2002  74.795     656397 23403.5593
##  4     Bahrain      Asia  2007  75.635     708573 29796.0483
##  5  Bangladesh      Asia  2002  62.013  135656790  1136.3904
##  6  Bangladesh      Asia  2007  64.062  150448339  1391.2538
##  7    Cambodia      Asia  2002  56.752   12926707   896.2260
##  8    Cambodia      Asia  2007  59.723   14131858  1713.7787
##  9       China      Asia  2002  72.028 1280400000  3119.2809
## 10       China      Asia  2007  72.961 1318683096  4959.1149
## # ... with 56 more rows
```
…
### First plot I want to improve
I want to plot change of mean life expectancy of the continent overtime. First, I created a new column for mean life expectancy of each continent.

```r
meanlifeExp <- gapminder %>%
  group_by(year,continent) %>%
  mutate(meanle = mean(lifeExp))
meanlifeExp
```

```
## # A tibble: 1,704 x 7
## # Groups:   year, continent [60]
##        country continent  year lifeExp      pop gdpPercap   meanle
##          <chr>     <chr> <int>   <dbl>    <int>     <dbl>    <dbl>
##  1 Afghanistan      Asia  1952  28.801  8425333  779.4453 46.31439
##  2 Afghanistan      Asia  1957  30.332  9240934  820.8530 49.31854
##  3 Afghanistan      Asia  1962  31.997 10267083  853.1007 51.56322
##  4 Afghanistan      Asia  1967  34.020 11537966  836.1971 54.66364
##  5 Afghanistan      Asia  1972  36.088 13079460  739.9811 57.31927
##  6 Afghanistan      Asia  1977  38.438 14880372  786.1134 59.61056
##  7 Afghanistan      Asia  1982  39.854 12881816  978.0114 62.61794
##  8 Afghanistan      Asia  1987  40.822 13867957  852.3959 64.85118
##  9 Afghanistan      Asia  1992  41.674 16317921  649.3414 66.53721
## 10 Afghanistan      Asia  1997  41.763 22227415  635.3414 68.02052
## # ... with 1,694 more rows
```
…
